…
  - `snake_case`
  - `lowerCamel`
  - `UpperCamel`

The default is `"snake"`, which we’ll clearly specify here:

``` r
clean_names(lakes, case = "snake")
```

    ## # A tibble: 86 x 28
    ##       yr businessid  wbid water_body wb_cls mdnr_impsz  size epa_apprsz
    ##    <dbl>      <dbl> <dbl> <chr>      <chr>       <dbl> <dbl>      <dbl>
    ##  1  2014      60348  7309 Bee Tree … L3             10    10         10
    ##  2  2006      59691  7365 Belcher B… L3             42    42         42
    ##  3  2014      54686  7003 Bowling G… L1              7     7          7
    ##  4  2012      51313  7003 Bowling G… L1              7     7          7
    ##  5  2012      51312  7003 Bowling G… L1              7     7          7
    ##  6  2016      60247  7117 Buffalo B… L3             45    45         45
    ##  7  2006      60020  7057 Busch W.A… L3             51    51         51
    ##  8  2014      55954  7326 Clearwate… L2           1635  1635       1635
    ##  9  2002      60036  7326 Clearwate… L2           1635  1635       1635
    ## 10  2016      60037  7326 Clearwate… L2           1635  1635       1635
    ## # … with 76 more rows, and 20 more variables: unit <chr>, pollutant <chr>,
    ## #   source <chr>, iu <chr>, ou <chr>, dwn_x <dbl>, dwn_y <dbl>,
    ## #   county_u_d <chr>, wb_epa <chr>, comment <chr>, perm_id <chr>,
    ## #   eventdat <date>, reachcode <chr>, rchsmdate <lgl>, rch_res <lgl>,
    ## #   src_desc <chr>, feat_url <lgl>, shape_leng <dbl>, shape_le_1 <dbl>,
    ## #   shape_area <dbl>

Notice how underscores (i.e. `_`) have been introduced in variable
names. The following code chunk illustrates the `"lower_camel"` option
for comparison.

``` r
clean_names(lakes, case = "lower_camel")
```

    ## # A tibble: 86 x 28
    ##       yr businessid  wbid waterBody wbCls mdnrImpsz  size epaApprsz unit 
    ##    <dbl>      <dbl> <dbl> <chr>     <chr>     <dbl> <dbl>     <dbl> <chr>
    ##  1  2014      60348  7309 Bee Tree… L3           10    10        10 Acres
    ##  2  2006      59691  7365 Belcher … L3           42    42        42 Acres
    ##  3  2014      54686  7003 Bowling … L1            7     7         7 Acres
    ##  4  2012      51313  7003 Bowling … L1            7     7         7 Acres
    ##  5  2012      51312  7003 Bowling … L1            7     7         7 Acres
    ##  6  2016      60247  7117 Buffalo … L3           45    45        45 Acres
    ##  7  2006      60020  7057 Busch W.… L3           51    51        51 Acres
    ##  8  2014      55954  7326 Clearwat… L2         1635  1635      1635 Acres
    ##  9  2002      60036  7326 Clearwat… L2         1635  1635      1635 Acres
    ## 10  2016      60037  7326 Clearwat… L2         1635  1635      1635 Acres
    ## # … with 76 more rows, and 19 more variables: pollutant <chr>,
    ## #   source <chr>, iu <chr>, ou <chr>, dwnX <dbl>, dwnY <dbl>,
    ## #   countyUD <chr>, wbEpa <chr>, comment <chr>, permId <chr>,
    ## #   eventdat <date>, reachcode <chr>, rchsmdate <lgl>, rchRes <lgl>,
    ## #   srcDesc <chr>, featUrl <lgl>, shapeLeng <dbl>, shapeLe1 <dbl>,
    ## #   shapeArea <dbl>

The underscores used in snake case are gone, and replaced by a capital
letter in the second word. With `"uower_camel"`, the first character of
each variable name will also be capitalized:

``` r
clean_names(lakes, case = "upper_camel")
```

    ## # A tibble: 86 x 28
    ##       Yr Businessid  Wbid WaterBody WbCls MdnrImpsz  Size EpaApprsz Unit 
    ##    <dbl>      <dbl> <dbl> <chr>     <chr>     <dbl> <dbl>     <dbl> <chr>
    ##  1  2014      60348  7309 Bee Tree… L3           10    10        10 Acres
    ##  2  2006      59691  7365 Belcher … L3           42    42        42 Acres
    ##  3  2014      54686  7003 Bowling … L1            7     7         7 Acres
    ##  4  2012      51313  7003 Bowling … L1            7     7         7 Acres
    ##  5  2012      51312  7003 Bowling … L1            7     7         7 Acres
    ##  6  2016      60247  7117 Buffalo … L3           45    45        45 Acres
    ##  7  2006      60020  7057 Busch W.… L3           51    51        51 Acres
    ##  8  2014      55954  7326 Clearwat… L2         1635  1635      1635 Acres
    ##  9  2002      60036  7326 Clearwat… L2         1635  1635      1635 Acres
    ## 10  2016      60037  7326 Clearwat… L2         1635  1635      1635 Acres
    ## # … with 76 more rows, and 19 more variables: Pollutant <chr>,
    ## #   Source <chr>, Iu <chr>, Ou <chr>, DwnX <dbl>, DwnY <dbl>,
    ## #   CountyUD <chr>, WbEpa <chr>, Comment <chr>, PermId <chr>,
    ## #   Eventdat <date>, Reachcode <chr>, Rchsmdate <lgl>, RchRes <lgl>,
    ## #   SrcDesc <chr>, FeatUrl <lgl>, ShapeLeng <dbl>, ShapeLe1 <dbl>,
    ## #   ShapeArea <dbl>
…
``` r
lakes %>%
  clean_names(case = "snake") %>%
  rename(
    year = yr,
    water_body_id = wbid) -> lakes_names

lakes_names
```

    ## # A tibble: 86 x 28
    ##     year businessid water_body_id water_body wb_cls mdnr_impsz  size
    ##    <dbl>      <dbl>         <dbl> <chr>      <chr>       <dbl> <dbl>
    ##  1  2014      60348          7309 Bee Tree … L3             10    10
    ##  2  2006      59691          7365 Belcher B… L3             42    42
    ##  3  2014      54686          7003 Bowling G… L1              7     7
    ##  4  2012      51313          7003 Bowling G… L1              7     7
    ##  5  2012      51312          7003 Bowling G… L1              7     7
    ##  6  2016      60247          7117 Buffalo B… L3             45    45
    ##  7  2006      60020          7057 Busch W.A… L3             51    51
    ##  8  2014      55954          7326 Clearwate… L2           1635  1635
    ##  9  2002      60036          7326 Clearwate… L2           1635  1635
    ## 10  2016      60037          7326 Clearwate… L2           1635  1635
    ## # … with 76 more rows, and 21 more variables: epa_apprsz <dbl>,
    ## #   unit <chr>, pollutant <chr>, source <chr>, iu <chr>, ou <chr>,
    ## #   dwn_x <dbl>, dwn_y <dbl>, county_u_d <chr>, wb_epa <chr>,
    ## #   comment <chr>, perm_id <chr>, eventdat <date>, reachcode <chr>,
    ## #   rchsmdate <lgl>, rch_res <lgl>, src_desc <chr>, feat_url <lgl>,
    ## #   shape_leng <dbl>, shape_le_1 <dbl>, shape_area <dbl>
…
## Missing Data

Once we’ve got column names that are predictable and easy to work with,
we want to check for missing data. This can be done with the `naniar`
package’s `miss_var_summary()` function, which will provide us with a
tibble where each row is a variable. The count and percentage of missing
observations per variable is provided in the columns:

``` r
lakes_names %>%
  miss_var_summary()
```

    ## # A tibble: 28 x 3
    ##    variable      n_miss pct_miss
    ##    <chr>          <int>    <dbl>
    ##  1 rchsmdate         86   100   
    ##  2 rch_res           86   100   
    ##  3 feat_url          86   100   
    ##  4 reachcode         10    11.6 
    ##  5 perm_id            8     9.30
    ##  6 eventdat           7     8.14
    ##  7 ou                 4     4.65
    ##  8 year               0     0   
    ##  9 businessid         0     0   
    ## 10 water_body_id      0     0   
    ## # … with 18 more rows
…
Output like this indicates that there are no true duplicates that have
identical information in every variable. This is a good start, but it
does not mean there are not duplicated observations. For instance, we
can check and see if the same body of water appears in more than one
row:

``` r
lakes_names %>%
  get_dupes(water_body)
```

    ## # A tibble: 45 x 29
    ##    water_body dupe_count  year businessid water_body_id wb_cls mdnr_impsz
    ##    <chr>           <int> <dbl>      <dbl>         <dbl> <chr>       <dbl>
    ##  1 Bowling G…          3  2014      54686          7003 L1              7
    ##  2 Bowling G…          3  2012      51313          7003 L1              7
    ##  3 Bowling G…          3  2012      51312          7003 L1              7
    ##  4 Clearwate…          3  2014      55954          7326 L2           1635
    ##  5 Clearwate…          3  2002      60036          7326 L2           1635
    ##  6 Clearwate…          3  2016      60037          7326 L2           1635
    ##  7 Crane Lake          2  2016      60023          7334 L3            109
    ##  8 Crane Lake          2  2016      60022          7334 L3            109
    ##  9 Forest La…          4  2010      51337          7151 L1            580
    ## 10 Forest La…          4  2016      60145          7151 L1            580
    ## # … with 35 more rows, and 22 more variables: size <dbl>,
    ## #   epa_apprsz <dbl>, unit <chr>, pollutant <chr>, source <chr>, iu <chr>,
    ## #   ou <chr>, dwn_x <dbl>, dwn_y <dbl>, county_u_d <chr>, wb_epa <chr>,
    ## #   comment <chr>, perm_id <chr>, eventdat <date>, reachcode <chr>,
    ## #   rchsmdate <lgl>, rch_res <lgl>, src_desc <chr>, feat_url <lgl>,
    ## #   shape_leng <dbl>, shape_le_1 <dbl>, shape_area <dbl>

It does\! When we identify this, we need to revisit what we think the
observational unit for these data are. We understandably may have
believed that each observation was for a single body of water, and that
is true (i.e. no *single* observation is for *multiple* bodies of
water), but we have bodies of water listed multiple times. We can test
this easily by creating a list of all of the unique bodies of water:

``` r
lakes_names %>%
  distinct(water_body)
```

    ## # A tibble: 55 x 1
    ##    water_body              
    ##    <chr>                   
    ##  1 Bee Tree Lake           
    ##  2 Belcher Branch Lake     
    ##  3 Bowling Green Lake - Old
    ##  4 Buffalo Bill Lake       
    ##  5 Busch W.A. No. 35 Lake  
    ##  6 Clearwater Lake         
    ##  7 Coot Lake               
    ##  8 Cottontail Lake         
    ##  9 Crane Lake              
    ## 10 Crowder St. Park Lake   
    ## # … with 45 more rows
…
Once we are ready to get rid of duplicated data, we can use the `dplyr`
`distinct()` function. The `.keep_all` argument is important, as it
ensures that we get all of the other columns in addition to the one we
specify:

``` r
lakes_names %>%
  distinct(water_body, .keep_all = TRUE) -> lakes_unique

lakes_unique
```

    ## # A tibble: 55 x 28
    ##     year businessid water_body_id water_body wb_cls mdnr_impsz  size
    ##    <dbl>      <dbl>         <dbl> <chr>      <chr>       <dbl> <dbl>
    ##  1  2014      60348          7309 Bee Tree … L3             10    10
    ##  2  2006      59691          7365 Belcher B… L3             42    42
    ##  3  2014      54686          7003 Bowling G… L1              7     7
    ##  4  2016      60247          7117 Buffalo B… L3             45    45
    ##  5  2006      60020          7057 Busch W.A… L3             51    51
    ##  6  2014      55954          7326 Clearwate… L2           1635  1635
    ##  7  2016      60336          7378 Coot Lake  L3             20    20
    ##  8  2016      60338          7379 Cottontai… L3             22    22
    ##  9  2016      60023          7334 Crane Lake L3            109   109
    ## 10  2016      60260          7135 Crowder S… L3             18    18
    ## # … with 45 more rows, and 21 more variables: epa_apprsz <dbl>,
    ## #   unit <chr>, pollutant <chr>, source <chr>, iu <chr>, ou <chr>,
    ## #   dwn_x <dbl>, dwn_y <dbl>, county_u_d <chr>, wb_epa <chr>,
    ## #   comment <chr>, perm_id <chr>, eventdat <date>, reachcode <chr>,
    ## #   rchsmdate <lgl>, rch_res <lgl>, src_desc <chr>, feat_url <lgl>,
    ## #   shape_leng <dbl>, shape_le_1 <dbl>, shape_area <dbl>

## Subsetting Columns

Once we have a data set with a predictable number of observations, we
can start to get rid of columns. This practice of whittling down our
data is known as “subsetting.” We always use the `select()` function
from `dplyr` for this. We can list one or more variables preceded by a
negative sign (i.e. `-`) to remove a column from our data:

``` r
lakes_unique %>%
  select(-year)
```

    ## # A tibble: 55 x 27
    ##    businessid water_body_id water_body wb_cls mdnr_impsz  size epa_apprsz
    ##         <dbl>         <dbl> <chr>      <chr>       <dbl> <dbl>      <dbl>
    ##  1      60348          7309 Bee Tree … L3             10    10         10
    ##  2      59691          7365 Belcher B… L3             42    42         42
    ##  3      54686          7003 Bowling G… L1              7     7          7
    ##  4      60247          7117 Buffalo B… L3             45    45         45
    ##  5      60020          7057 Busch W.A… L3             51    51         51
    ##  6      55954          7326 Clearwate… L2           1635  1635       1635
    ##  7      60336          7378 Coot Lake  L3             20    20         20
    ##  8      60338          7379 Cottontai… L3             22    22         22
    ##  9      60023          7334 Crane Lake L3            109   109        109
    ## 10      60260          7135 Crowder S… L3             18    18         18
    ## # … with 45 more rows, and 20 more variables: unit <chr>, pollutant <chr>,
    ## #   source <chr>, iu <chr>, ou <chr>, dwn_x <dbl>, dwn_y <dbl>,
    ## #   county_u_d <chr>, wb_epa <chr>, comment <chr>, perm_id <chr>,
    ## #   eventdat <date>, reachcode <chr>, rchsmdate <lgl>, rch_res <lgl>,
    ## #   src_desc <chr>, feat_url <lgl>, shape_leng <dbl>, shape_le_1 <dbl>,
    ## #   shape_area <dbl>

Alternatively, we can list variables without negative signs that we want
to retain:

``` r
lakes_unique %>%
  select(water_body_id, water_body, pollutant) -> lakes_subset_cols

lakes_subset_cols
```

    ## # A tibble: 55 x 3
    ##    water_body_id water_body               pollutant                 
    ##            <dbl> <chr>                    <chr>                     
    ##  1          7309 Bee Tree Lake            Mercury in Fish Tissue (T)
    ##  2          7365 Belcher Branch Lake      Mercury in Fish Tissue (T)
    ##  3          7003 Bowling Green Lake - Old Chlorophyll-a (W)         
    ##  4          7117 Buffalo Bill Lake        Mercury in Fish Tissue (T)
    ##  5          7057 Busch W.A. No. 35 Lake   Mercury in Fish Tissue (T)
    ##  6          7326 Clearwater Lake          Chlorophyll-a (W)         
    ##  7          7378 Coot Lake                Mercury in Fish Tissue (T)
    ##  8          7379 Cottontail Lake          Mercury in Fish Tissue (T)
    ##  9          7334 Crane Lake               Chlorophyll-a (W)         
    ## 10          7135 Crowder St. Park Lake    Mercury in Fish Tissue (T)
    ## # … with 45 more rows

As before, we write our data to a new object when we are happy with the
changes we have made.

Our data will be created in whatever order we list the columns in, so
re-ordering our list to put `pollutant` first will mean that pollutant
is now the first column in the data we have created.

``` r
lakes_subset_cols %>%
  select(pollutant, water_body_id, water_body)
```

    ## # A tibble: 55 x 3
    ##    pollutant                  water_body_id water_body              
    ##    <chr>                              <dbl> <chr>                   
    ##  1 Mercury in Fish Tissue (T)          7309 Bee Tree Lake           
    ##  2 Mercury in Fish Tissue (T)          7365 Belcher Branch Lake     
    ##  3 Chlorophyll-a (W)                   7003 Bowling Green Lake - Old
    ##  4 Mercury in Fish Tissue (T)          7117 Buffalo Bill Lake       
    ##  5 Mercury in Fish Tissue (T)          7057 Busch W.A. No. 35 Lake  
    ##  6 Chlorophyll-a (W)                   7326 Clearwater Lake         
    ##  7 Mercury in Fish Tissue (T)          7378 Coot Lake               
    ##  8 Mercury in Fish Tissue (T)          7379 Cottontail Lake         
    ##  9 Chlorophyll-a (W)                   7334 Crane Lake              
    ## 10 Mercury in Fish Tissue (T)          7135 Crowder St. Park Lake   
    ## # … with 45 more rows

## Subsetting Observations

We can also subset our data by observation. For instance, we can use the
`filter()` function from `dplyr` to return only observations that are
for lakes at or over 100 acres in size:

``` r
lakes_names %>% 
  filter(size >= 100)
```

    ## # A tibble: 45 x 28
    ##     year businessid water_body_id water_body wb_cls mdnr_impsz  size
    ##    <dbl>      <dbl>         <dbl> <chr>      <chr>       <dbl> <dbl>
    ##  1  2014      55954          7326 Clearwate… L2           1635  1635
    ##  2  2002      60036          7326 Clearwate… L2           1635  1635
    ##  3  2016      60037          7326 Clearwate… L2           1635  1635
    ##  4  2016      60023          7334 Crane Lake L3            109   109
    ##  5  2016      60022          7334 Crane Lake L3            109   109
    ##  6  2012      60105          7237 Fellows L… L1            800   800
    ##  7  2010      51337          7151 Forest La… L1            580   580
    ##  8  2016      60145          7151 Forest La… L1            580   580
    ##  9  2010      51335          7151 Forest La… L1            580   580
    ## 10  2010      51336          7151 Forest La… L1            580   580
    ## # … with 35 more rows, and 21 more variables: epa_apprsz <dbl>,
    ## #   unit <chr>, pollutant <chr>, source <chr>, iu <chr>, ou <chr>,
    ## #   dwn_x <dbl>, dwn_y <dbl>, county_u_d <chr>, wb_epa <chr>,
    ## #   comment <chr>, perm_id <chr>, eventdat <date>, reachcode <chr>,
    ## #   rchsmdate <lgl>, rch_res <lgl>, src_desc <chr>, feat_url <lgl>,
    ## #   shape_leng <dbl>, shape_le_1 <dbl>, shape_area <dbl>
…
The `==` (i.e. “exactly equal to”) operator is particularly useful for
selecting data that are character:

``` r
lakes_names %>% 
  filter(pollutant == "Mercury in Fish Tissue (T)")
```

    ## # A tibble: 58 x 28
    ##     year businessid water_body_id water_body wb_cls mdnr_impsz  size
    ##    <dbl>      <dbl>         <dbl> <chr>      <chr>       <dbl> <dbl>
    ##  1  2014      60348          7309 Bee Tree … L3             10    10
    ##  2  2006      59691          7365 Belcher B… L3             42    42
    ##  3  2016      60247          7117 Buffalo B… L3             45    45
    ##  4  2006      60020          7057 Busch W.A… L3             51    51
    ##  5  2002      60036          7326 Clearwate… L2           1635  1635
    ##  6  2016      60336          7378 Coot Lake  L3             20    20
    ##  7  2016      60338          7379 Cottontai… L3             22    22
    ##  8  2016      60260          7135 Crowder S… L3             18    18
    ##  9  2002      59683          7015 Deer Ridg… L3             39    39
    ## 10  2012      60105          7237 Fellows L… L1            800   800
    ## # … with 48 more rows, and 21 more variables: epa_apprsz <dbl>,
    ## #   unit <chr>, pollutant <chr>, source <chr>, iu <chr>, ou <chr>,
    ## #   dwn_x <dbl>, dwn_y <dbl>, county_u_d <chr>, wb_epa <chr>,
    ## #   comment <chr>, perm_id <chr>, eventdat <date>, reachcode <chr>,
    ## #   rchsmdate <lgl>, rch_res <lgl>, src_desc <chr>, feat_url <lgl>,
    ## #   shape_leng <dbl>, shape_le_1 <dbl>, shape_area <dbl>
…
